<svg width="19" height="19" viewBox="0 0 19 19" fill="none" xmlns="http://www.w3.org/2000/svg">
<path d="M15.8346 4.75L7.1263 13.4583L3.16797 9.5" stroke="#ED624F" stroke-width="1.5" stroke-linecap="round" stroke-linejoin="round"/>
</svg>
